//created on: 10-Aug-2019
package rules.store

import com.yourcompany.model.store.*;
import java.util.ArrayList;

rule "Prints out of order items"
	lock-on-active true
    when
		//$customer : Customer(  )
		//$order: Order( customer == $customer, $items : items   )
		$order: Order( $items : items )
		$item: OrderItem( order == $order, sold == true ) from $items
    then
    	System.out.println("=============>>> Item out of order: " + $item.getName());
    	//System.out.println("Order out of order: " + $order.getName());
    	$order.setOutOfOrder(true);
		update($order);
end


rule "At least one order item is out of stock"
	lock-on-active true
    when
		//$customer : Customer(  )
		//$order: Order( customer == $customer, $items : items   )
		$order: Order( $items : items  )
		exists ( OrderItem(sold == true) from $items  )
    then
    	System.out.println("============>>>> Order Not in stock: " + $order.getName());
    	$order.setOutOfOrder(true);
		update($order);
end

rule "Collect items avaialble"
	lock-on-active true
    when
		//$customer : Customer(  )
		//$order: Order( customer == $customer, $items : items   )
		$order: Order( $items : items  )
		$availableItems: ArrayList(size > 0) from collect ( OrderItem(sold == false) from $items )
    then
     	System.out.println("============>>>> Available Items size: " + $availableItems.size());
 
    	for(Object i : $availableItems) {
	    	System.out.println("============>>>> Available Item Name: " + ((OrderItem)i).getName());
    	} 
 
    	$order.setOutOfOrder(true);
		update($order);
end
