package rules.message
 
import com.yourcompany.model.Message;

 
rule "Say HI"
	dialect "mvel" 
    when
        m : Message( status == Message.HI, message : message )
    then
        System.out.println( message );
    modify ( m ) { message = "Bye world",
                   status = Message.BYE };
end

rule "Say Bye"
	dialect "java" 
    when
        Message( status == Message.BYE, message : message )
    then
        System.out.println( message );
end
